…
    ## ── Column specification ────────────────────────────────────────────────────────
    ## Delimiter: ","
    ## chr (3): Gender, Ethnicity, Child's First Name
    ## dbl (3): Year of Birth, Count, Rank

    ## 
    ## ℹ Use `spec()` to retrieve the full column specification for this data.
    ## ℹ Specify the column types or set `show_col_types = FALSE` to quiet this message.

``` r
babynames_data %>% 
distinct(.keep_all = TRUE)
```

    ## # A tibble: 12,181 × 6
    ##    `Year of Birth` Gender Ethnicity              `Child's First Nam… Count  Rank
    ##              <dbl> <chr>  <chr>                  <chr>               <dbl> <dbl>
    ##  1            2016 FEMALE ASIAN AND PACIFIC ISL… Olivia                172     1
    ##  2            2016 FEMALE ASIAN AND PACIFIC ISL… Chloe                 112     2
    ##  3            2016 FEMALE ASIAN AND PACIFIC ISL… Sophia                104     3
    ##  4            2016 FEMALE ASIAN AND PACIFIC ISL… Emily                  99     4
    ##  5            2016 FEMALE ASIAN AND PACIFIC ISL… Emma                   99     4
    ##  6            2016 FEMALE ASIAN AND PACIFIC ISL… Mia                    79     5
    ##  7            2016 FEMALE ASIAN AND PACIFIC ISL… Charlotte              59     6
    ##  8            2016 FEMALE ASIAN AND PACIFIC ISL… Sarah                  57     7
    ##  9            2016 FEMALE ASIAN AND PACIFIC ISL… Isabella               56     8
    ## 10            2016 FEMALE ASIAN AND PACIFIC ISL… Hannah                 56     8
    ## # … with 12,171 more rows
